{
  "project_info": {
    "project_number": "1024121646685",
    "firebase_url": "https://ecommerce-ad735.firebaseio.com",
    "project_id": "ecommerce-ad735",
    "storage_bucket": "ecommerce-ad735.appspot.com"
  },
  "client": [
    {
      "client_info": {
        "mobilesdk_app_id": "1:1024121646685:android:d40527acb8d55387",
        "android_client_info": {
          "package_name": "com.becasoft.andresfrias.ecommerce"
        }
      },
      "oauth_client": [
        {
          "client_id": "1024121646685-id7jjrg43jb1sd00inibbucdrgf4t71b.apps.googleusercontent.com",
          "client_type": 1,
          "android_info": {
            "package_name": "com.becasoft.andresfrias.ecommerce",
            "certificate_hash": "43d074daa16fdcf9f0c1baaacda4bb872204a60c"
          }
        },
        {
          "client_id": "1024121646685-jurdgjgmem594egdj52sq40jtvneiqat.apps.googleusercontent.com",
          "client_type": 3
        }
      ],
      "api_key": [
        {
          "current_key": "AIzaSyAr2rpewuYlcqONyAj6_SYm5UiAnMG2CD0"
        }
      ],
      "services": {
        "analytics_service": {
          "status": 1
        },
        "appinvite_service": {
          "status": 2,
          "other_platform_oauth_client": [
            {
              "client_id": "1024121646685-jurdgjgmem594egdj52sq40jtvneiqat.apps.googleusercontent.com",
              "client_type": 3
            }
          ]
        },
        "ads_service": {
          "status": 2
        }
      }
    }
  ],
  "configuration_version": "1"
}